39.977567 44.978161 49.978637 1.000000 
39.979348 44.979744 49.980061 1.500000
39.980239 44.980536 49.980773 2.000000
39.980773 44.981011 49.981201 2.500000
39.981129 44.981327 49.981486 3.000000
39.981384 44.981553 49.981689 3.500000
39.981574 44.981723 49.981842 4.000000
39.981723 44.981855 49.981960 4.500000
39.981842 44.981960 49.982055 5.000000
39.981939 44.982047 49.982133 5.500000
39.982020 44.982119 49.982198 6.000000
39.982088 44.982180 49.982253 6.500000
39.982147 44.982232 49.982300 7.000000
39.982198 44.982277 49.982340 7.500000
39.982242 44.982316 49.982376 8.000000
39.982282 44.982351 49.982407 8.500000
39.982316 44.982382 49.982435 9.000000
39.982348 44.982410 49.982460 9.500000
39.982376 44.982435 49.982483 10.000000
39.982401 44.982458 49.982503 10.500000
39.982424 44.982478 49.982522 11.000000
39.982445 44.982497 49.982538 11.500000
39.982465 44.982514 49.982554 12.000000
39.982483 44.982530 49.982568 12.500000
39.982499 44.982545 49.982581 13.000000
39.982514 44.982558 49.982593 13.500000
39.982528 44.982571 49.982605 14.000000
39.982542 44.982583 49.982615 14.500000
39.982554 44.982593 49.982625 15.000000
39.982565 44.982604 49.982634 15.500000
39.982576 44.982613 49.982643 16.000000
39.982586 44.982622 49.982651 16.500000
39.982596 44.982631 49.982659 17.000000
39.982605 44.982639 49.982666 17.500000
39.982613 44.982646 49.982673 18.000000
39.982621 44.982653 49.982679 18.500000
39.982629 44.982660 49.982685 19.000000
39.982636 44.982667 49.982691 19.500000
39.982643 44.982673 49.982696 20.000000
39.982649 44.982678 49.982702 20.500000
39.982656 44.982684 49.982707 21.000000
39.982662 44.982689 49.982711 21.500000
39.982667 44.982694 49.982716 22.000000
39.982673 44.982699 49.982720 22.500000
39.982678 44.982704 49.982724 23.000000
39.982683 44.982708 49.982728 23.500000
39.982687 44.982712 49.982732 24.000000
39.982692 44.982716 49.982736 24.500000
39.982696 44.982720 49.982739 25.000000
39.982701 44.982724 49.982742 25.500000
39.982705 44.982727 49.982746 26.000000
39.982708 44.982731 49.982749 26.500000
39.982712 44.982734 49.982752 27.000000
39.982716 44.982737 49.982755 27.500000
39.982719 44.982740 49.982757 28.000000
39.982723 44.982743 49.982760 28.500000
39.982726 44.982746 49.982763 29.000000
39.982729 44.982749 49.982765 29.500000
39.982732 44.982752 49.982768 30.000000
