        Name: <Rozanov, Nikolai>
         CID: <00831231>
  LIBRARY NO: <0247023908>
Email Adress: <nikolai.rozanov13@imperial.ac.uk>
 Course CODE: <M3SC>


Enter the coefficients of the Quadratic Equation a2*x^2+a1*x+a0=0 
In the order a2,a1,a0, separated by spaces


Case:1 a2=6.000000 a1 = 216.000000 a0=416.000000
One real root and complex conjugate pair: r1 = -2.000000, r_real = -2.000000 r_imag = 14.282857
This is how these roots perform: 0.000000
This is how these roots perform: 0.000000 + -0.000000i
End of Case:1


Case:2 a2=-2.000000 a1 = -5.000000 a0=6.000000
Three distinct real roots: r1 = 3.000000, r2 = 1.000000, r3 = -2.000000
This is how these roots perform: 0.000000 0.000000 -0.000000
End of Case:2


Case:3 a2=3.000000 a1 = 9.000000 a0=-13.000000
One real root and complex conjugate pair: r1 = 1.000000, r_real = -2.000000 r_imag = 3.000000
This is how these roots perform: -0.000000
This is how these roots perform: 0.000000 + -0.000000i
End of Case:3


Case:4 a2=1.000000 a1 = -1.000000 a0=-1.000000
Three distinct real roots: r1 = 1.000000, r2 = -1.000000, r3 = -1.000000
This is how these roots perform: 0.000000 0.000000 0.000000
End of Case:4


Case:5 a2=-4.000000 a1 = -11.000000 a0=30.000000
Three distinct real roots: r1 = 5.000000, r2 = 2.000000, r3 = -3.000000
This is how these roots perform: 0.000000 0.000000 0.000000
End of Case:5


Case:6 a2=1.000000 a1 = 3.000000 a0=-5.000000
One real root and complex conjugate pair: r1 = 1.000000, r_real = -1.000000 r_imag = 2.000000
This is how these roots perform: 0.000000
This is how these roots perform: -0.000000 + 0.000000i
End of Case:6


Case:7 a2=2.000000 a1 = -1.000000 a0=-2.000000
Three distinct real roots: r1 = 1.000000, r2 = -1.000000, r3 = -2.000000
This is how these roots perform: 0.000000 0.000000 0.000000
End of Case:7


Case:8 a2=15.000000 a1 = 75.000000 a0=125.000000
One real root with triple multiplicity: r1 = -5.000000 
This is how these roots perform: 0.000000 0.000000 0.000000
End of Case:8


Case:9 a2=-2.000000 a1 = -5.000000 a0=6.000000
Three distinct real roots: r1 = 3.000000, r2 = 1.000000, r3 = -2.000000
This is how these roots perform: 0.000000 0.000000 -0.000000
End of Case:9


Case:10 a2=-9.000000 a1 = 27.000000 a0=-27.000000
One real root with triple multiplicity: r1 = 3.000000 
This is how these roots perform: 0.000000 0.000000 0.000000
End of Case:10


Case:11 a2=0.000000 a1 = 0.000000 a0=-64.000000
One real root and complex conjugate pair: r1 = 4.000000, r_real = -2.000000 r_imag = 3.464102
This is how these roots perform: 0.000000
This is how these roots perform: 0.000000 + -0.000000i
End of Case:11


Case:12 a2=0.000000 a1 = 0.000000 a0=64.000000
One real root and complex conjugate pair: r1 = -4.000000, r_real = 2.000000 r_imag = 3.464102
This is how these roots perform: 0.000000
This is how these roots perform: -0.000000 + -0.000000i
End of Case:12


Case:13 a2=-3.000000 a1 = 2.000000 a0=0.000000
Three distinct real roots: r1 = 2.000000, r2 = 1.000000, r3 = 0.000000
This is how these roots perform: 0.000000 0.000000 0.000000
End of Case:13


Case:14 a2=-1.000000 a1 = 9.000000 a0=-9.000000
One real root and complex conjugate pair: r1 = 1.000000, r_real = 0.000000 r_imag = 3.000000
This is how these roots perform: 0.000000
This is how these roots perform: 0.000000 + 0.000000i
End of Case:14


Case:15 a2=2.000000 a1 = -7.000000 a0=4.000000
Three distinct real roots: r1 = 1.000000, r2 = 1.000000, r3 = -4.000000
This is how these roots perform: 0.000000 0.000000 -0.000000
End of Case:15


Case:16 a2=9.000000 a1 = 27.000000 a0=-37.000000
One real root and complex conjugate pair: r1 = 1.000000, r_real = -5.000000 r_imag = 3.464102
This is how these roots perform: 0.000000
This is how these roots perform: 0.000000 + -0.000000i
End of Case:16


Case:17 a2=3.000000 a1 = 5.000000 a0=-9.000000
One real root and complex conjugate pair: r1 = 1.000000, r_real = -2.000000 r_imag = 2.236068
This is how these roots perform: 0.000000
This is how these roots perform: 0.000000 + -0.000000i
End of Case:17


Case:18 a2=-3.000000 a1 = -5.000000 a0=7.000000
Three distinct real roots: r1 = 3.828427, r2 = 1.000000, r3 = -1.828427
This is how these roots perform: 0.000000 0.000000 -0.000000
End of Case:18


Case:19 a2=2.000000 a1 = 4.000000 a0=8.000000
One real root and complex conjugate pair: r1 = -2.000000, r_real = 0.000000 r_imag = 2.000000
This is how these roots perform: 0.000000
This is how these roots perform: 0.000000 + 0.000000i
End of Case:19


Case:20 a2=0.000000 a1 = 4.000000 a0=8.000000
One real root and complex conjugate pair: r1 = -1.364656, r_real = 0.682328 r_imag = 2.323083
This is how these roots perform: -0.000000
This is how these roots perform: 0.000000 + 0.000000i
End of Case:20


Case:21 a2=-2.000000 a1 = 4.000000 a0=8.000000
One real root and complex conjugate pair: r1 = -1.087378, r_real = 1.543689 r_imag = 2.230285
This is how these roots perform: 0.000000
This is how these roots perform: 0.000000 + 0.000000i
End of Case:21


Case:22 a2=2.000000 a1 = 0.000000 a0=8.000000
One real root and complex conjugate pair: r1 = -2.931142, r_real = 0.465571 r_imag = 1.585104
This is how these roots perform: 0.000000
This is how these roots perform: 0.000000 + -0.000000i
End of Case:22


Case:23 a2=0.000000 a1 = 0.000000 a0=8.000000
One real root and complex conjugate pair: r1 = -2.000000, r_real = 1.000000 r_imag = 1.732051
This is how these roots perform: 0.000000
This is how these roots perform: -0.000000 + -0.000000i
End of Case:23


Case:24 a2=-2.000000 a1 = 0.000000 a0=8.000000
One real root and complex conjugate pair: r1 = -1.509755, r_real = 1.754878 r_imag = 1.489724
This is how these roots perform: 0.000000
This is how these roots perform: 0.000000 + 0.000000i
End of Case:24


Case:25 a2=2.000000 a1 = -4.000000 a0=8.000000
One real root and complex conjugate pair: r1 = -3.678574, r_real = 0.839287 r_imag = 1.212581
This is how these roots perform: 0.000000
This is how these roots perform: 0.000000 + -0.000000i
End of Case:25


Case:26 a2=0.000000 a1 = -4.000000 a0=8.000000
One real root and complex conjugate pair: r1 = -2.649436, r_real = 1.324718 r_imag = 1.124559
This is how these roots perform: -0.000000
This is how these roots perform: 0.000000 + 0.000000i
End of Case:26


Case:27 a2=-2.000000 a1 = -4.000000 a0=8.000000
Three distinct real roots: r1 = 2.000000, r2 = 2.000000, r3 = -2.000000
This is how these roots perform: 0.000000 0.000000 0.000000
End of Case:27


Case:28 a2=2.000000 a1 = 4.000000 a0=0.000000
One real root and complex conjugate pair: r1 = 0.000000, r_real = -1.000000 r_imag = 1.732051
This is how these roots perform: 0.000000
This is how these roots perform: -0.000000 + 0.000000i
End of Case:28


Case:29 a2=0.000000 a1 = 4.000000 a0=0.000000
One real root and complex conjugate pair: r1 = 0.000000, r_real = 0.000000 r_imag = 2.000000
This is how these roots perform: 0.000000
This is how these roots perform: 0.000000 + 0.000000i
End of Case:29


Case:30 a2=-2.000000 a1 = 4.000000 a0=0.000000
One real root and complex conjugate pair: r1 = 0.000000, r_real = 1.000000 r_imag = 1.732051
This is how these roots perform: 0.000000
This is how these roots perform: 0.000000 + 0.000000i
End of Case:30


Case:31 a2=2.000000 a1 = 0.000000 a0=0.000000
One real root with double multiplicity, one with single: r1 = 0.000000 r2 = 0.000000
This is how these roots perform: 0.000000 0.000000 0.000000
End of Case:31


Case:32 a2=0.000000 a1 = 0.000000 a0=0.000000
One real root with triple multiplicity: r1 = 0.000000 
This is how these roots perform: 0.000000 0.000000 0.000000
End of Case:32


Case:33 a2=-2.000000 a1 = 0.000000 a0=0.000000
One real root with double multiplicity, one with single: r1 = 2.000000 r2 = 0.000000
This is how these roots perform: 0.000000 0.000000 0.000000
End of Case:33


Case:34 a2=0.000000 a1 = -4.000000 a0=0.000000
Three distinct real roots: r1 = 2.000000, r2 = 0.000000, r3 = -2.000000
This is how these roots perform: 0.000000 0.000000 0.000000
End of Case:34


Case:35 a2=2.000000 a1 = 4.000000 a0=-8.000000
One real root and complex conjugate pair: r1 = 1.087378, r_real = -1.543689 r_imag = 2.230285
This is how these roots perform: 0.000000
This is how these roots perform: -0.000000 + 0.000000i
End of Case:35


Case:36 a2=0.000000 a1 = 4.000000 a0=-8.000000
One real root and complex conjugate pair: r1 = 1.364656, r_real = -0.682328 r_imag = 2.323083
This is how these roots perform: 0.000000
This is how these roots perform: 0.000000 + 0.000000i
End of Case:36


Case:37 a2=-2.000000 a1 = 4.000000 a0=-8.000000
One real root and complex conjugate pair: r1 = 2.000000, r_real = 0.000000 r_imag = 2.000000
This is how these roots perform: 0.000000
This is how these roots perform: 0.000000 + 0.000000i
End of Case:37


Case:38 a2=2.000000 a1 = 0.000000 a0=-8.000000
One real root and complex conjugate pair: r1 = 1.509755, r_real = -1.754878 r_imag = 1.489724
This is how these roots perform: -0.000000
This is how these roots perform: 0.000000 + 0.000000i
End of Case:38


Case:39 a2=0.000000 a1 = 0.000000 a0=-8.000000
One real root and complex conjugate pair: r1 = 2.000000, r_real = -1.000000 r_imag = 1.732051
This is how these roots perform: 0.000000
This is how these roots perform: 0.000000 + -0.000000i
End of Case:39


Case:40 a2=-2.000000 a1 = 0.000000 a0=-8.000000
One real root and complex conjugate pair: r1 = 2.931142, r_real = -0.465571 r_imag = 1.585104
This is how these roots perform: 0.000000
This is how these roots perform: -0.000000 + -0.000000i
End of Case:40


Case:41 a2=2.000000 a1 = -4.000000 a0=-8.000000
Three distinct real roots: r1 = 2.000000, r2 = -2.000000, r3 = -2.000000
This is how these roots perform: 0.000000 0.000000 0.000000
End of Case:41


Case:42 a2=0.000000 a1 = -4.000000 a0=-8.000000
One real root and complex conjugate pair: r1 = 2.649436, r_real = -1.324718 r_imag = 1.124559
This is how these roots perform: 0.000000
This is how these roots perform: 0.000000 + 0.000000i
End of Case:42


Case:43 a2=-2.000000 a1 = -4.000000 a0=-8.000000
One real root and complex conjugate pair: r1 = 3.678574, r_real = -0.839287 r_imag = 1.212581
This is how these roots perform: -0.000000
This is how these roots perform: 0.000000 + -0.000000i
End of Case:43


Case:44 a2=2.000000 a1 = -4.000000 a0=0.000000
Three distinct real roots: r1 = 1.236068, r2 = 0.000000, r3 = -3.236068
This is how these roots perform: -0.000000 0.000000 0.000000
End of Case:44


Case:45 a2=-2.000000 a1 = -4.000000 a0=0.000000
Three distinct real roots: r1 = 3.236068, r2 = 0.000000, r3 = -1.236068
This is how these roots perform: 0.000000 0.000000 0.000000
End of Case:45


Case:46 a2=-52.633333 a1 = 132.366667 a0=-35.000000
Three distinct real roots: r1 = 50.000000, r2 = 2.333333, r3 = 0.300000
This is how these roots perform: 0.000000 0.000000 0.000000
End of Case:46


Case:47 a2=-47.966667 a1 = -102.366667 a0=35.000000
Three distinct real roots: r1 = 50.000000, r2 = 0.300000, r3 = -2.333333
This is how these roots perform: 0.000000 -0.000000 0.000000
End of Case:47


Case:48 a2=47.366667 a1 = -130.966667 a0=35.000000
Three distinct real roots: r1 = 2.333333, r2 = 0.300000, r3 = -50.000000
This is how these roots perform: -0.000000 -0.000000 -0.000000
End of Case:48


Case:49 a2=52.033333 a1 = 100.966667 a0=-35.000000
Three distinct real roots: r1 = 0.300000, r2 = -2.333333, r3 = -50.000000
This is how these roots perform: 0.000000 -0.000000 0.000000
End of Case:49


Case:50 a2=-52.033333 a1 = 100.966667 a0=35.000000
Three distinct real roots: r1 = 50.000000, r2 = 2.333333, r3 = -0.300000
This is how these roots perform: -0.000000 0.000000 -0.000000
End of Case:50


Case:51 a2=-47.366667 a1 = -130.966667 a0=-35.000000
Three distinct real roots: r1 = 50.000000, r2 = -0.300000, r3 = -2.333333
This is how these roots perform: 0.000000 0.000000 0.000000
End of Case:51


Case:52 a2=47.966667 a1 = -102.366667 a0=-35.000000
Three distinct real roots: r1 = 2.333333, r2 = -0.300000, r3 = -50.000000
This is how these roots perform: -0.000000 0.000000 -0.000000
End of Case:52


Case:53 a2=52.633333 a1 = 132.366667 a0=35.000000
Three distinct real roots: r1 = -0.300000, r2 = -2.333333, r3 = -50.000000
This is how these roots perform: -0.000000 -0.000000 -0.000000
End of Case:53


Case:54 a2=-1171.393333 a1 = 5514.724444 a0=-326.666667
Three distinct real roots: r1 = 1166.666667, r2 = 4.666667, r3 = 0.060000
This is how these roots perform: -0.000000 -0.000000 -0.000000
End of Case:54


Case:55 a2=-1162.060000 a1 = -5374.724444 a0=326.666667
Three distinct real roots: r1 = 1166.666667, r2 = 0.060000, r3 = -4.666667
This is how these roots perform: -0.000000 -0.000000 0.000000
End of Case:55


Case:56 a2=1161.940000 a1 = -5514.164444 a0=326.666667
Three distinct real roots: r1 = 4.666667, r2 = 0.060000, r3 = -1166.666667
This is how these roots perform: 0.000000 0.000000 0.000000
End of Case:56


Case:57 a2=1171.273333 a1 = 5374.164444 a0=-326.666667
Three distinct real roots: r1 = 0.060000, r2 = -4.666667, r3 = -1166.666667
This is how these roots perform: -0.000000 0.000000 0.000000
End of Case:57


Case:58 a2=-1171.273333 a1 = 5374.164444 a0=326.666667
Three distinct real roots: r1 = 1166.666667, r2 = 4.666667, r3 = -0.060000
This is how these roots perform: -0.000000 -0.000000 0.000000
End of Case:58


Case:59 a2=-1161.940000 a1 = -5514.164444 a0=-326.666667
Three distinct real roots: r1 = 1166.666667, r2 = -0.060000, r3 = -4.666667
This is how these roots perform: -0.000000 -0.000000 -0.000000
End of Case:59


Case:60 a2=1162.060000 a1 = -5374.724444 a0=-326.666667
Three distinct real roots: r1 = 4.666667, r2 = -0.060000, r3 = -1166.666667
This is how these roots perform: -0.000000 0.000000 0.000000
End of Case:60


Case:61 a2=1171.393333 a1 = 5514.724444 a0=326.666667
Three distinct real roots: r1 = -0.060000, r2 = -4.666667, r3 = -1166.666667
This is how these roots perform: 0.000000 0.000000 0.000000
End of Case:61


Case:62 a2=-21008.410000 a1 = 176610.084000 a0=-1764.000000
Three distinct real roots: r1 = 21000.000000, r2 = 8.400000, r3 = 0.010000
This is how these roots perform: 0.000000 0.000000 0.000000
End of Case:62


Case:63 a2=-20991.610000 a1 = -176190.084000 a0=1764.000000
Three distinct real roots: r1 = 21000.000000, r2 = 0.010000, r3 = -8.400000
This is how these roots perform: 0.003906 0.000000 -0.000001
End of Case:63


Case:64 a2=20991.590000 a1 = -176609.916000 a0=1764.000000
Three distinct real roots: r1 = 8.400000, r2 = 0.010000, r3 = -21000.000000
This is how these roots perform: -0.000000 -0.000000 0.000000
End of Case:64


Case:65 a2=21008.390000 a1 = 176189.916000 a0=-1764.000000
Three distinct real roots: r1 = 0.010000, r2 = -8.400000, r3 = -21000.000000
This is how these roots perform: 0.000000 -0.000000 0.000000
End of Case:65


Case:66 a2=-21008.390000 a1 = 176189.916000 a0=1764.000000
Three distinct real roots: r1 = 21000.000000, r2 = 8.400000, r3 = -0.010000
This is how these roots perform: 0.000000 0.000000 -0.000000
End of Case:66


Case:67 a2=-20991.590000 a1 = -176609.916000 a0=-1764.000000
Three distinct real roots: r1 = 21000.000000, r2 = -0.010000, r3 = -8.400000
This is how these roots perform: 0.000000 0.000000 0.000000
End of Case:67


Case:68 a2=20991.610000 a1 = -176190.084000 a0=-1764.000000
Three distinct real roots: r1 = 8.400000, r2 = -0.010000, r3 = -21000.000000
This is how these roots perform: 0.000001 -0.000000 -0.003906
End of Case:68


Case:69 a2=21008.410000 a1 = 176610.084000 a0=1764.000000
Three distinct real roots: r1 = -0.010000, r2 = -8.400000, r3 = -21000.000000
This is how these roots perform: -0.000000 -0.000000 0.000000
End of Case:69


Case:70 a2=-330014.001500 a1 = 4620495.021000 a0=-6930.000000
Three distinct real roots: r1 = 330000.000000, r2 = 14.000000, r3 = 0.001500
This is how these roots perform: 0.000000 -0.000060 -0.000000
End of Case:70


Case:71 a2=-329986.001500 a1 = -4619505.021000 a0=6930.000000
Three distinct real roots: r1 = 330000.000000, r2 = 0.001500, r3 = -14.000000
This is how these roots perform: 0.000000 -0.000000 0.000060
End of Case:71


Case:72 a2=329985.998500 a1 = -4620494.979000 a0=6930.000000
Three distinct real roots: r1 = 14.000000, r2 = 0.001500, r3 = -330000.000000
This is how these roots perform: 0.000060 0.000000 0.000000
End of Case:72


Case:73 a2=330013.998500 a1 = 4619504.979000 a0=-6930.000000
Three distinct real roots: r1 = 0.001500, r2 = -14.000000, r3 = -330000.000000
This is how these roots perform: 0.000000 -0.000060 0.000000
End of Case:73


Case:74 a2=-330013.998500 a1 = 4619504.979000 a0=6930.000000
Three distinct real roots: r1 = 330000.000000, r2 = 14.000000, r3 = -0.001500
This is how these roots perform: 0.000000 0.000060 -0.000000
End of Case:74


Case:75 a2=-329985.998500 a1 = -4620494.979000 a0=-6930.000000
Three distinct real roots: r1 = 330000.000000, r2 = -0.001500, r3 = -14.000000
This is how these roots perform: 0.000000 -0.000000 -0.000060
End of Case:75


Case:76 a2=329986.001500 a1 = -4619505.021000 a0=-6930.000000
Three distinct real roots: r1 = 14.000000, r2 = -0.001500, r3 = -330000.000000
This is how these roots perform: -0.000060 0.000000 0.000000
End of Case:76


Case:77 a2=330014.001500 a1 = 4620495.021000 a0=6930.000000
Three distinct real roots: r1 = -0.001500, r2 = -14.000000, r3 = -330000.000000
This is how these roots perform: 0.000000 0.000060 0.000000
End of Case:77


Case:78 a2=-4766688.666877 a1 = 104867667.671287 a0=-22022.000000
Three distinct real roots: r1 = 4766666.666667, r2 = 22.000000, r3 = 0.000210
This is how these roots perform: -5484.312500 -0.021183 -0.000000
End of Case:78


Case:79 a2=-4766644.666877 a1 = -104865665.671287 a0=22022.000000
Three distinct real roots: r1 = 4766666.666667, r2 = 0.000210, r3 = -22.000000
This is how these roots perform: -21417.000000 -0.000000 0.021195
End of Case:79


Case:80 a2=4766644.666457 a1 = -104867667.662047 a0=22022.000000
Three distinct real roots: r1 = 22.000000, r2 = 0.000210, r3 = -4766666.666667
This is how these roots perform: 0.021184 0.000000 -5484.312500
End of Case:80


Case:81 a2=4766688.666457 a1 = 104865665.662047 a0=-22022.000000
Three distinct real roots: r1 = 0.000210, r2 = -22.000000, r3 = -4766666.666667
This is how these roots perform: -0.000001 0.076469 -5032.937500
End of Case:81


Case:82 a2=-4766688.666457 a1 = 104865665.662047 a0=22022.000000
Three distinct real roots: r1 = 4766666.666667, r2 = 22.000000, r3 = -0.000210
This is how these roots perform: 5032.937500 -0.076469 0.000001
End of Case:82


Case:83 a2=-4766644.666457 a1 = -104867667.662047 a0=-22022.000000
Three distinct real roots: r1 = 4766666.666667, r2 = -0.000210, r3 = -22.000000
This is how these roots perform: 5484.312500 -0.000000 -0.021184
End of Case:83


Case:84 a2=4766644.666877 a1 = -104865665.671287 a0=-22022.000000
Three distinct real roots: r1 = 22.000000, r2 = -0.000210, r3 = -4766666.666667
This is how these roots perform: -0.021195 0.000000 21417.000000
End of Case:84


Case:85 a2=4766688.666877 a1 = 104867667.671287 a0=22022.000000
Three distinct real roots: r1 = -0.000210, r2 = -22.000000, r3 = -4766666.666667
This is how these roots perform: 0.000000 0.021183 5484.312500
End of Case:85


Case:86 a2=-65000033.000028 a1 = 2145001820.000920 a0=-60060.000000
Three distinct real roots: r1 = 65000000.000000, r2 = 33.000000, r3 = 0.000028
This is how these roots perform: -16134652.000000 1.540237 0.000001
End of Case:86


Case:87 a2=-64999967.000028 a1 = -2144998180.000920 a0=60060.000000
Three distinct real roots: r1 = 65000000.000000, r2 = 0.000028, r3 = -33.000000
This is how these roots perform: -9719812.000000 0.000001 -1.540482
End of Case:87


Case:88 a2=64999966.999972 a1 = -2145001819.999080 a0=60060.000000
Three distinct real roots: r1 = 33.000000, r2 = 0.000028, r3 = -65000000.000000
This is how these roots perform: -1.540482 -0.000001 17420284.000000
End of Case:88


Case:89 a2=65000032.999972 a1 = 2144998179.999080 a0=-60060.000000
Three distinct real roots: r1 = 0.000028, r2 = -33.000000, r3 = -65000000.000000
This is how these roots perform: -0.000001 1.540237 -9720316.000000
End of Case:89


Case:90 a2=-65000032.999972 a1 = 2144998179.999080 a0=60060.000000
Three distinct real roots: r1 = 65000000.000000, r2 = 33.000000, r3 = -0.000028
This is how these roots perform: 9720316.000000 -1.540237 0.000001
End of Case:90


Case:91 a2=-64999966.999972 a1 = -2145001819.999080 a0=-60060.000000
Three distinct real roots: r1 = 65000000.000000, r2 = -0.000028, r3 = -33.000000
This is how these roots perform: -17420284.000000 0.000001 1.540482
End of Case:91


Case:92 a2=64999967.000028 a1 = -2144998180.000920 a0=-60060.000000
Three distinct real roots: r1 = 33.000000, r2 = -0.000028, r3 = -65000000.000000
This is how these roots perform: 1.540482 -0.000001 9719812.000000
End of Case:92


Case:93 a2=65000033.000028 a1 = 2145001820.000920 a0=60060.000000
Three distinct real roots: r1 = -0.000028, r2 = -33.000000, r3 = -65000000.000000
This is how these roots perform: -0.000001 -1.540237 16134652.000000
End of Case:93


Case:94 a2=-850000047.666670 a1 = 40516669726.666801 a0=-145860.000000
Three distinct real roots: r1 = 850000000.000000, r2 = 47.666667, r3 = 0.000004
This is how these roots perform: 49372309052.000000 2571.095215 0.000194
End of Case:94


Case:95 a2=-849999952.333337 a1 = -40516663606.666801 a0=145860.000000
Three distinct real roots: r1 = 850000000.000000, r2 = 0.000004, r3 = -47.666667
This is how these roots perform: -70052550204.000000 -0.000049 648.877441
End of Case:95


Case:96 a2=849999952.333330 a1 = -40516669726.666496 a0=145860.000000
Three distinct real roots: r1 = 47.666667, r2 = 0.000004, r3 = -850000000.000000
This is how these roots perform: 2258.867676 0.000171 -88066590268.000000
End of Case:96


Case:97 a2=850000047.666663 a1 = 40516663606.666496 a0=-145860.000000
Three distinct real roots: r1 = 0.000004, r2 = -47.666667, r3 = -850000000.000000
This is how these roots perform: 0.000049 -648.879150 -70052583876.000000
End of Case:97


Case:98 a2=-850000047.666663 a1 = 40516663606.666496 a0=145860.000000
Three distinct real roots: r1 = 850000000.000000, r2 = 47.666667, r3 = -0.000004
This is how these roots perform: 70052583876.000000 648.879150 -0.000049
End of Case:98


Case:99 a2=-849999952.333330 a1 = -40516669726.666496 a0=-145860.000000
Three distinct real roots: r1 = 850000000.000000, r2 = -0.000004, r3 = -47.666667
This is how these roots perform: 88066590268.000000 -0.000171 -2258.867676
End of Case:99


Case:100 a2=849999952.333337 a1 = -40516663606.666801 a0=-145860.000000
Three distinct real roots: r1 = 47.666667, r2 = -0.000004, r3 = -850000000.000000
This is how these roots perform: -648.877441 0.000049 70052550204.000000
End of Case:100


Case:101 a2=850000047.666670 a1 = 40516669726.666801 a0=145860.000000
Three distinct real roots: r1 = -0.000004, r2 = -47.666667, r3 = -850000000.000000
This is how these roots perform: -0.000194 -2571.095215 -49372309052.000000
End of Case:101


Case:102 a2=-10766666733.400000 a1 = 718495560400.556030 a0=-323323.000000
Three distinct real roots: r1 = 10766666666.666666, r2 = 66.733333, r3 = 0.000000
This is how these roots perform: -58111698464507.000000 140600.164062 0.000948
End of Case:102


Case:103 a2=-10766666599.933300 a1 = -718495550710.556030 a0=323323.000000
Three distinct real roots: r1 = 10766666666.666634, r2 = 0.000000, r3 = -66.733334
This is how these roots perform: -119034254921989.000000 0.003412 -506045.695312
End of Case:103


Case:104 a2=10766666599.933300 a1 = -718495560400.556030 a0=323323.000000
Three distinct real roots: r1 = 66.733333, r2 = 0.000000, r3 = -10766666666.666634
This is how these roots perform: -140600.312500 -0.000948 223363255824123.000000
End of Case:104


Case:105 a2=10766666733.400000 a1 = 718495550710.556030 a0=-323323.000000
Three distinct real roots: r1 = 0.000000, r2 = -66.733332, r3 = -10766666666.666668
This is how these roots perform: 0.005829 -864375.648438 21703208669445.000000
End of Case:105


Case:106 a2=-10766666733.400000 a1 = 718495550710.556030 a0=323323.000000
Three distinct real roots: r1 = 10766666666.666668, r2 = 66.733332, r3 = -0.000000
This is how these roots perform: -21703208669445.000000 864375.648438 -0.005829
End of Case:106


Case:107 a2=-10766666599.933300 a1 = -718495560400.556030 a0=-323323.000000
Three distinct real roots: r1 = 10766666666.666634, r2 = -0.000000, r3 = -66.733333
This is how these roots perform: -223363255824123.000000 0.000948 140600.312500
End of Case:107


Case:108 a2=10766666599.933300 a1 = -718495550710.556030 a0=-323323.000000
Three distinct real roots: r1 = 66.733334, r2 = -0.000000, r3 = -10766666666.666634
This is how these roots perform: 506045.695312 -0.003412 119034254921989.000000
End of Case:108


Case:109 a2=10766666733.400000 a1 = 718495560400.556030 a0=323323.000000
Three distinct real roots: r1 = -0.000000, r2 = -66.733333, r3 = -10766666666.666666
This is how these roots perform: -0.000948 -140600.164062 58111698464507.000000
End of Case:109


Case:110 a2=-133000000091.000000 a1 = 12103000007315.000000 a0=-665665.000000
Three distinct real roots: r1 = 133000000000.000000, r2 = 91.000000, r3 = 0.000000
This is how these roots perform: 84303980585670592.000000 665665.000000 0.000402
End of Case:110


Case:111 a2=-132999999909.000000 a1 = -12102999992685.000000 a0=665665.000000
Three distinct real roots: r1 = 133000000000.000000, r2 = 0.000000, r3 = -91.000000
This is how these roots perform: -82358190480938944.000000 0.000402 -665665.000000
End of Case:111


Case:112 a2=132999999909.000000 a1 = -12103000007315.000000 a0=665665.000000
Three distinct real roots: r1 = 91.000000, r2 = 0.000000, r3 = -133000000000.000000
This is how these roots perform: -665665.000000 -0.000402 84303980587001920.000000
End of Case:112


Case:113 a2=133000000091.000000 a1 = 12102999992685.000000 a0=-665665.000000
Three distinct real roots: r1 = 0.000000, r2 = -91.000000, r3 = -133000000000.000000
This is how these roots perform: -0.000402 665665.000000 -82358190482270272.000000
End of Case:113


Case:114 a2=-133000000091.000000 a1 = 12102999992685.000000 a0=665665.000000
Three distinct real roots: r1 = 133000000000.000000, r2 = 91.000000, r3 = -0.000000
This is how these roots perform: 82358190482270272.000000 -665665.000000 0.000402
End of Case:114


Case:115 a2=-132999999909.000000 a1 = -12103000007315.000000 a0=-665665.000000
Three distinct real roots: r1 = 133000000000.000000, r2 = -0.000000, r3 = -91.000000
This is how these roots perform: -84303980587001920.000000 0.000402 665665.000000
End of Case:115


Case:116 a2=132999999909.000000 a1 = -12102999992685.000000 a0=-665665.000000
Three distinct real roots: r1 = 91.000000, r2 = -0.000000, r3 = -133000000000.000000
This is how these roots perform: 665665.000000 -0.000402 82358190480938944.000000
End of Case:116


Case:117 a2=133000000091.000000 a1 = 12103000007315.000000 a0=665665.000000
Three distinct real roots: r1 = -0.000000, r2 = -91.000000, r3 = -133000000000.000000
This is how these roots perform: -0.000402 -665665.000000 -84303980585670592.000000
End of Case:117


Case:118 a2=-1610000000121.330078 a1 = 195346666677293.000000 a0=-1289288.000000
Three distinct real roots: r1 = 1609999999999.996826, r2 = 121.333252, r3 = 0.000000
This is how these roots perform: 296478753847453155328.000000 15898631144.000000 0.864817
End of Case:118


Case:119 a2=-1609999999878.669922 a1 = -195346666656041.000000 a0=1289288.000000
Three distinct real roots: r1 = 1610000000000.003418, r2 = 0.000000, r3 = -121.333496
This is how these roots perform: 293851270976646643712.000000 1.729560 -31796036812.000000
End of Case:119


Case:120 a2=1609999999878.669922 a1 = -195346666677293.000000 a0=1289288.000000
Three distinct real roots: r1 = 121.333496, r2 = 0.000000, r3 = -1610000000000.003418
This is how these roots perform: 31793458228.000000 1.729420 -293817055274299326464.000000
End of Case:120


Case:121 a2=1610000000121.330078 a1 = 195346666656041.000000 a0=-1289288.000000
Three distinct real roots: r1 = 0.000000, r2 = -121.333252, r3 = -1609999999999.996826
This is how these roots perform: 0.864677 -15896052568.000000 -296444538076391538688.000000
End of Case:121


Case:122 a2=-1610000000121.330078 a1 = 195346666656041.000000 a0=1289288.000000
Three distinct real roots: r1 = 1609999999999.996826, r2 = 121.333252, r3 = -0.000000
This is how these roots perform: 296444538076391538688.000000 15896052568.000000 -0.864677
End of Case:122


Case:123 a2=-1609999999878.669922 a1 = -195346666677293.000000 a0=-1289288.000000
Three distinct real roots: r1 = 1610000000000.003418, r2 = -0.000000, r3 = -121.333496
This is how these roots perform: 293817055274299326464.000000 -1.729420 -31793458228.000000
End of Case:123


Case:124 a2=1609999999878.669922 a1 = -195346666656041.000000 a0=-1289288.000000
Three distinct real roots: r1 = 121.333496, r2 = -0.000000, r3 = -1610000000000.003418
This is how these roots perform: 31796036812.000000 -1.729560 -293851270976646643712.000000
End of Case:124


Case:125 a2=1610000000121.330078 a1 = 195346666677293.000000 a0=1289288.000000
Three distinct real roots: r1 = -0.000000, r2 = -121.333252, r3 = -1609999999999.996826
This is how these roots perform: -0.864817 -15898631144.000000 -296478753847453155328.000000
End of Case:125


Case:126 a2=-19166666666825.300781 a1 = 3041111111126060.000000 a0=-2372066.666667
Three distinct real roots: r1 = 19166666666666.632812, r2 = 158.667969, r3 = 0.000000
This is how these roots perform: 813496349651877410897920.000000 -3959810215394.666504 -19.465974
End of Case:126


Case:127 a2=-19166666666508.000000 a1 = -3041111111096160.000000 a0=2372066.666667
Three distinct real roots: r1 = 19166666666666.671875, r2 = 0.000000, r3 = -158.671875
This is how these roots perform: 2813281682160713486827520.000000 77.862039 -15839642671965.333984
End of Case:127


Case:128 a2=19166666666508.000000 a1 = -3041111111126060.000000 a0=2372066.666667
Three distinct real roots: r1 = 158.671875, r2 = 0.000000, r3 = -19166666666666.671875
This is how these roots perform: 15839637927522.666016 77.862016 -2813281109077660903931904.000000
End of Case:128


Case:129 a2=19166666666825.300781 a1 = 3041111111096160.000000 a0=-2372066.666667
Three distinct real roots: r1 = 0.000000, r2 = -158.667969, r3 = -19166666666666.632812
This is how these roots perform: -19.465998 3959814959645.333496 -813495776568824828002304.000000
End of Case:129


Case:130 a2=-19166666666825.300781 a1 = 3041111111096160.000000 a0=2372066.666667
Three distinct real roots: r1 = 19166666666666.632812, r2 = 158.667969, r3 = -0.000000
This is how these roots perform: 813495776568824828002304.000000 -3959814959645.333496 19.465998
End of Case:130


Case:131 a2=-19166666666508.000000 a1 = -3041111111126060.000000 a0=-2372066.666667
Three distinct real roots: r1 = 19166666666666.671875, r2 = -0.000000, r3 = -158.671875
This is how these roots perform: 2813281109077660903931904.000000 -77.862016 -15839637927522.666016
End of Case:131


Case:132 a2=19166666666508.000000 a1 = -3041111111096160.000000 a0=-2372066.666667
Three distinct real roots: r1 = 158.671875, r2 = -0.000000, r3 = -19166666666666.671875
This is how these roots perform: 15839642671965.333984 -77.862039 -2813281682160713486827520.000000
End of Case:132


Case:133 a2=19166666666825.300781 a1 = 3041111111126060.000000 a0=2372066.666667
Three distinct real roots: r1 = -0.000000, r2 = -158.667969, r3 = -19166666666666.632812
This is how these roots perform: 19.465974 3959810215394.666504 -813496349651877410897920.000000
End of Case:133


Case:134 a2=-225000000000204.000000 a1 = 45900000000020496.000000 a0=-4176900.000000
Three distinct real roots: r1 = 225000000000000.000000, r2 = 204.000000, r3 = 0.000000
This is how these roots perform: 604192285970179304038858752.000000 4180988.000000 0.000002
End of Case:134


Case:135 a2=-50.600000 a1 = 30.090000 a0=-4.500000
Three distinct real roots: r1 = 50.000000, r2 = 0.300000, r3 = 0.300000
This is how these roots perform: 0.000000 -0.000000 -0.000000
End of Case:135


Case:136 a2=49.400000 a1 = -29.910000 a0=4.500000
Three distinct real roots: r1 = 0.300000, r2 = 0.300000, r3 = -50.000000
This is how these roots perform: 0.000000 0.000000 0.000000
End of Case:136


Case:137 a2=-49.400000 a1 = -29.910000 a0=-4.500000
Three distinct real roots: r1 = 50.000000, r2 = -0.300000, r3 = -0.300000
This is how these roots perform: 0.000000 -0.000000 -0.000000
End of Case:137


Case:138 a2=50.600000 a1 = 30.090000 a0=4.500000
Three distinct real roots: r1 = -0.300000, r2 = -0.300000, r3 = -50.000000
This is how these roots perform: 0.000000 0.000000 0.000000
End of Case:138


Case:139 a2=-99.700000 a1 = 2470.000000 a0=750.000000
Three distinct real roots: r1 = 50.000006, r2 = 49.999994, r3 = -0.300000
This is how these roots perform: 0.000000 0.000000 -0.000000
End of Case:139


Case:140 a2=-100.300000 a1 = 2530.000000 a0=-750.000000
One real root and complex conjugate pair: r1 = 0.300000, r_real = 50.000000 r_imag = 0.000005
This is how these roots perform: -0.000000
This is how these roots perform: -0.000000 + -0.000000i
End of Case:140


Case:141 a2=100.300000 a1 = 2530.000000 a0=750.000000
One real root and complex conjugate pair: r1 = -0.300000, r_real = -50.000000 r_imag = 0.000005
This is how these roots perform: 0.000000
This is how these roots perform: 0.000000 + -0.000000i
End of Case:141


Case:142 a2=99.700000 a1 = 2470.000000 a0=-750.000000
Three distinct real roots: r1 = 0.300000, r2 = -49.999994, r3 = -50.000006
This is how these roots perform: 0.000000 -0.000000 -0.000000
End of Case:142


Case:143 a2=-1166.786667 a1 = 140.003600 a0=-4.200000
One real root and complex conjugate pair: r1 = 1166.666667, r_real = 0.060000 r_imag = 0.000000
This is how these roots perform: 0.000000
This is how these roots perform: 0.000000 + 0.000000i
End of Case:143


Case:144 a2=1166.546667 a1 = -139.996400 a0=4.200000
Three distinct real roots: r1 = 0.060000, r2 = 0.060000, r3 = -1166.666667
This is how these roots perform: 0.000000 0.000000 -0.000000
End of Case:144


Case:145 a2=-1166.546667 a1 = -139.996400 a0=-4.200000
Three distinct real roots: r1 = 1166.666667, r2 = -0.060000, r3 = -0.060000
This is how these roots perform: 0.000000 -0.000000 -0.000000
End of Case:145


Case:146 a2=1166.786667 a1 = 140.003600 a0=4.200000
One real root and complex conjugate pair: r1 = -1166.666667, r_real = -0.060000 r_imag = 0.000000
This is how these roots perform: -0.000000
This is how these roots perform: -0.000000 + 0.000000i
End of Case:146


Case:147 a2=-2333.273333 a1 = 1360971.111111 a0=81666.666667
Three distinct real roots: r1 = 1166.667823, r2 = 1166.665511, r3 = -0.060000
This is how these roots perform: 0.001563 0.001563 -0.000000
End of Case:147


Case:148 a2=-2333.393333 a1 = 1361251.111111 a0=-81666.666667
One real root and complex conjugate pair: r1 = 0.060000, r_real = 1166.666667 r_imag = 0.001115
This is how these roots perform: -0.000000
This is how these roots perform: -0.001446 + -0.000000i
End of Case:148


Case:149 a2=2333.393333 a1 = 1361251.111111 a0=81666.666667
One real root and complex conjugate pair: r1 = -0.060000, r_real = -1166.666667 r_imag = 0.001115
This is how these roots perform: 0.000000
This is how these roots perform: 0.001446 + -0.000000i
End of Case:149


Case:150 a2=2333.273333 a1 = 1360971.111111 a0=-81666.666667
Three distinct real roots: r1 = 0.060000, r2 = -1166.665511, r3 = -1166.667823
This is how these roots perform: 0.000000 -0.001563 -0.001563
End of Case:150


Case:151 a2=-21000.020000 a1 = 420.000100 a0=-2.100000
Three distinct real roots: r1 = 21000.000000, r2 = 0.010000, r3 = 0.010000
This is how these roots perform: -0.000000 -0.000000 -0.000000
End of Case:151


Case:152 a2=20999.980000 a1 = -419.999900 a0=2.100000
Three distinct real roots: r1 = 0.010000, r2 = 0.010000, r3 = -21000.000000
This is how these roots perform: 0.000000 0.000000 0.000000
End of Case:152


Case:153 a2=-20999.980000 a1 = -419.999900 a0=-2.100000
Three distinct real roots: r1 = 21000.000000, r2 = -0.010000, r3 = -0.010000
This is how these roots perform: -0.000000 -0.000000 -0.000000
End of Case:153


Case:154 a2=21000.020000 a1 = 420.000100 a0=2.100000
Three distinct real roots: r1 = -0.010000, r2 = -0.010000, r3 = -21000.000000
This is how these roots perform: 0.000000 0.000000 0.000000
End of Case:154


Case:155 a2=-41999.990000 a1 = 440999580.000000 a0=4410000.000000
Three distinct real roots: r1 = 21000.098113, r2 = 20999.901887, r3 = -0.010000
This is how these roots perform: 202.148438 202.144531 -0.000096
End of Case:155


Case:156 a2=-42000.010000 a1 = 441000420.000000 a0=-4410000.000000
One real root and complex conjugate pair: r1 = 0.010000, r_real = 21000.000000 r_imag = 0.265690
This is how these roots perform: -0.000706
This is how these roots perform: -1482.417969 + -0.018755i
End of Case:156


Case:157 a2=42000.010000 a1 = 441000420.000000 a0=4410000.000000
One real root and complex conjugate pair: r1 = -0.010000, r_real = -21000.000000 r_imag = 0.265690
This is how these roots perform: 0.000706
This is how these roots perform: 1482.417969 + -0.018755i
End of Case:157


Case:158 a2=41999.990000 a1 = 440999580.000000 a0=-4410000.000000
Three distinct real roots: r1 = 0.010000, r2 = -20999.901887, r3 = -21000.098113
This is how these roots perform: 0.000096 -202.144531 -202.148438
End of Case:158


Case:159 a2=-330000.003000 a1 = 990.000002 a0=-0.742500
One real root and complex conjugate pair: r1 = 330000.000000, r_real = 0.001500 r_imag = 0.000000
This is how these roots perform: 4.000000
This is how these roots perform: 0.000000 + 0.000000i
End of Case:159


Case:160 a2=329999.997000 a1 = -989.999998 a0=0.742500
Three distinct real roots: r1 = 0.001500, r2 = 0.001500, r3 = -330000.000000
This is how these roots perform: 0.000000 0.000000 -4.000000
End of Case:160


Case:161 a2=-329999.997000 a1 = -989.999998 a0=-0.742500
Three distinct real roots: r1 = 330000.000000, r2 = -0.001500, r3 = -0.001500
This is how these roots perform: 4.000000 -0.000000 -0.000000
End of Case:161


Case:162 a2=330000.003000 a1 = 990.000002 a0=0.742500
One real root and complex conjugate pair: r1 = -330000.000000, r_real = -0.001500 r_imag = 0.000000
This is how these roots perform: -4.000000
This is how these roots perform: -0.000000 + 0.000000i
End of Case:162


Case:163 a2=-659999.998500 a1 = 108899999010.000000 a0=163350000.000000
One real root and complex conjugate pair: r1 = -0.001500, r_real = 330000.000000 r_imag = 57.264998
This is how these roots perform: 4.918920
This is how these roots perform: -1082162404.000000 + -187787.963867i
End of Case:163


Case:164 a2=-660000.001500 a1 = 108900000990.000000 a0=-163350000.000000
One real root and complex conjugate pair: r1 = 0.001500, r_real = 330000.000000 r_imag = 34.151747
This is how these roots perform: -1.749513
This is how these roots perform: -384892808.000000 + -39832.612305i
End of Case:164


Case:165 a2=660000.001500 a1 = 108900000990.000000 a0=163350000.000000
One real root and complex conjugate pair: r1 = -0.001500, r_real = -330000.000000 r_imag = 34.151747
This is how these roots perform: 1.749513
This is how these roots perform: 384892808.000000 + -39832.612305i
End of Case:165


Case:166 a2=659999.998500 a1 = 108899999010.000000 a0=-163350000.000000
One real root and complex conjugate pair: r1 = 0.001500, r_real = -330000.000000 r_imag = 57.264998
This is how these roots perform: -4.918920
This is how these roots perform: 1082162404.000000 + -187787.963867i
End of Case:166


Case:167 a2=-4766666.667087 a1 = 2002.000000 a0=-0.210210
Three distinct real roots: r1 = 4766666.666667, r2 = 0.000210, r3 = 0.000210
This is how these roots perform: -26901.333327 -0.000000 -0.000000
End of Case:167


Case:168 a2=4766666.666247 a1 = -2002.000000 a0=0.210210
One real root and complex conjugate pair: r1 = -4766666.666667, r_real = 0.000210 r_imag = 0.000000
This is how these roots perform: 22250.666673
This is how these roots perform: -0.000001 + -0.000000i
End of Case:168


Case:169 a2=-4766666.666247 a1 = -2002.000000 a0=-0.210210
One real root and complex conjugate pair: r1 = 4766666.666667, r_real = -0.000210 r_imag = 0.000000
This is how these roots perform: -22250.666673
This is how these roots perform: 0.000001 + -0.000000i
End of Case:169


Case:170 a2=4766666.667087 a1 = 2002.000000 a0=0.210210
Three distinct real roots: r1 = -0.000210, r2 = -0.000210, r3 = -4766666.666667
This is how these roots perform: 0.000000 0.000000 26901.333327
End of Case:170


Case:171 a2=-9533333.333123 a1 = 22721111109109.101562 a0=4771433333.333330
Three distinct real roots: r1 = 4775166.334880, r2 = 4758166.998453, r3 = -0.000210
This is how these roots perform: 344978834574197.312500 343750728387445.312500 -15171.363787
End of Case:171


Case:172 a2=-9533333.333543 a1 = 22721111113113.101562 a0=-4771433333.333330
One real root and complex conjugate pair: r1 = 0.000210, r_real = 4766666.666667 r_imag = 5340.468782
This is how these roots perform: -5989.319912
This is how these roots perform: -135948225809269.328125 + -152313410304.000000i
End of Case:172


Case:173 a2=9533333.333543 a1 = 22721111113113.101562 a0=4771433333.333330
One real root and complex conjugate pair: r1 = -0.000210, r_real = -4766666.666667 r_imag = 5340.468782
This is how these roots perform: 5989.319912
This is how these roots perform: 135948225809269.328125 + -152313410304.000000i
End of Case:173


Case:174 a2=9533333.333123 a1 = 22721111109109.101562 a0=-4771433333.333330
Three distinct real roots: r1 = 0.000210, r2 = -4758166.998453, r3 = -4775166.334880
This is how these roots perform: 15171.363787 -343750728387445.312500 -344978834574197.312500
End of Case:174


Case:175 a2=-65000000.000056 a1 = 3640.000000 a0=-0.050960
One real root and complex conjugate pair: r1 = 65000000.000000, r_real = 0.000028 r_imag = 0.000000
This is how these roots perform: 7699967.999730
This is how these roots perform: 0.000003 + 0.000000i
End of Case:175


Case:176 a2=64999999.999944 a1 = -3640.000000 a0=0.050960
Three distinct real roots: r1 = 0.000028, r2 = 0.000028, r3 = -65000000.000000
This is how these roots perform: 0.000011 0.000011 -25854463.999699
End of Case:176


Case:177 a2=-64999999.999944 a1 = -3640.000000 a0=-0.050960
Three distinct real roots: r1 = 65000000.000000, r2 = -0.000028, r3 = -0.000028
This is how these roots perform: 25854463.999699 -0.000011 -0.000011
End of Case:177


Case:178 a2=65000000.000056 a1 = 3640.000000 a0=0.050960
One real root and complex conjugate pair: r1 = -65000000.000000, r_real = -0.000028 r_imag = 0.000000
This is how these roots perform: -7699967.999730
This is how these roots perform: -0.000003 + 0.000000i
End of Case:178


Case:179 a2=-129999999.999972 a1 = 4224999999996360.000000 a0=118300000000.000000
Three distinct real roots: r1 = 66007787.923657, r2 = 63992212.076343, r3 = -0.000028
This is how these roots perform: 67039918638069628928.000000 64992826240861388800.000000 -28444659.709961
End of Case:179


Case:180 a2=-130000000.000028 a1 = 4225000000003640.000000 a0=-118300000000.000000
One real root and complex conjugate pair: r1 = 0.000028, r_real = 65000000.000000 r_imag = 329183.032471
This is how these roots perform: -3034043.312073
This is how these roots perform: -7043495476288208896.000000 + -35670756924063744.000000i
End of Case:180


Case:181 a2=130000000.000028 a1 = 4225000000003640.000000 a0=118300000000.000000
One real root and complex conjugate pair: r1 = -0.000028, r_real = -65000000.000000 r_imag = 329183.032471
This is how these roots perform: 3034043.312073
This is how these roots perform: 7043495476288208896.000000 + -35670756924063744.000000i
End of Case:181


Case:182 a2=129999999.999972 a1 = 4224999999996360.000000 a0=-118300000000.000000
Three distinct real roots: r1 = 0.000028, r2 = -63992212.076343, r3 = -66007787.923657
This is how these roots perform: 28444659.709961 -64992826240861388800.000000 -67039918638069628928.000000
End of Case:182


Case:183 a2=-850000000.000007 a1 = 6120.000000 a0=-0.011016
Three distinct real roots: r1 = 850000000.000000, r2 = 0.000004, r3 = 0.000003
This is how these roots perform: -20680231936.004181 -0.000253 -0.000191
End of Case:183


Case:184 a2=849999999.999993 a1 = -6120.000000 a0=0.011016
One real root and complex conjugate pair: r1 = -850000000.000000, r_real = 0.000004 r_imag = 0.000000
This is how these roots perform: -20680231935.996796
This is how these roots perform: -0.000144 + -0.000017i
End of Case:184


Case:185 a2=-849999999.999993 a1 = -6120.000000 a0=-0.011016
One real root and complex conjugate pair: r1 = 850000000.000000, r_real = -0.000004 r_imag = 0.000000
This is how these roots perform: 20680231935.996796
This is how these roots perform: 0.000144 + -0.000017i
End of Case:185


Case:186 a2=850000000.000007 a1 = 6120.000000 a0=0.011016
Three distinct real roots: r1 = -0.000004, r2 = -0.000004, r3 = -850000000.000000
This is how these roots perform: 0.000253 0.000253 20680231936.004181
End of Case:186


Case:187 a2=-1700000000.000000 a1 = 722499999999993984.000000 a0=2601000000000.000000
One real root and complex conjugate pair: r1 = -0.000004, r_real = 850000000.000002 r_imag = 69226538.263855
This is how these roots perform: 17138648986.815918
This is how these roots perform: -4073466560000069694652416.000000 + -331755280802790626033664.000000i
End of Case:187


Case:188 a2=-1700000000.000000 a1 = 722500000000006016.000000 a0=-2601000000000.000000
One real root and complex conjugate pair: r1 = 0.000003, r_real = 849999999.999998 r_imag = 172833326.926708
This is how these roots perform: -103267360687.255371
This is how these roots perform: -25390655062068594626002944.000000 + -5162766337912659934969856.000000i
End of Case:188


Case:189 a2=1700000000.000000 a1 = 722500000000006016.000000 a0=2601000000000.000000
One real root and complex conjugate pair: r1 = -0.000003, r_real = -849999999.999998 r_imag = 172833326.926708
This is how these roots perform: 103267360687.255371
This is how these roots perform: 25390655062068594626002944.000000 + -5162766337912659934969856.000000i
End of Case:189


Case:190 a2=1700000000.000000 a1 = 722499999999993984.000000 a0=-2601000000000.000000
One real root and complex conjugate pair: r1 = 0.000004, r_real = -850000000.000002 r_imag = 69226538.263855
This is how these roots perform: -17138648986.815918
This is how these roots perform: 4073466560000069694652416.000000 + -331755280802790626033664.000000i
End of Case:190


Case:191 a2=-10766666666.666700 a1 = 9690.000000 a0=-0.002180
One real root and complex conjugate pair: r1 = 10766666666.666700, r_real = 0.000000 r_imag = 0.000000
This is how these roots perform: 104329000000000.328125
This is how these roots perform: 0.000000 + 0.004360i
End of Case:191


Case:192 a2=10766666666.666700 a1 = -9690.000000 a0=0.002180
Three distinct real roots: r1 = 0.000002, r2 = 0.000000, r3 = -10766666666.666702
This is how these roots perform: 0.019463 0.001224 -177145976710655.656250
End of Case:192


Case:193 a2=-10766666666.666700 a1 = -9690.000000 a0=-0.002180
Three distinct real roots: r1 = 10766666666.666702, r2 = -0.000002, r3 = -0.000002
This is how these roots perform: 177145976710655.656250 -0.019463 -0.019463
End of Case:193


Case:194 a2=10766666666.666700 a1 = 9690.000000 a0=0.002180
One real root and complex conjugate pair: r1 = -10766666666.666700, r_real = 0.000000 r_imag = 0.000000
This is how these roots perform: -104329000000000.328125
This is how these roots perform: 0.000000 + 0.004360i
End of Case:194


Case:195 a2=-21533333333.333302 a1 = 115921111111111000064.000000 a0=52164500000000.000000
Three distinct real roots: r1 = 18591158238.590717, r2 = 2942175094.742583, r3 = -0.000001
This is how these roots perform: 1138200315252992247985799692288.000000 180127810079861161451096899584.000000 -58386486395941.750000
End of Case:195


Case:196 a2=-21533333333.333302 a1 = 115921111111111000064.000000 a0=-52164500000000.000000
Three distinct real roots: r1 = 18591158238.590717, r2 = 2942175094.742583, r3 = 0.000001
This is how these roots perform: 1138200315252992247985799692288.000000 180127810079861091082352721920.000000 58386486395941.718750
End of Case:196


Case:197 a2=21533333333.333302 a1 = 115921111111111000064.000000 a0=52164500000000.000000
Three distinct real roots: r1 = -0.000001, r2 = -2942175094.742583, r3 = -18591158238.590717
This is how these roots perform: -58386486395941.718750 -180127810079861091082352721920.000000 -1138200315252992247985799692288.000000
End of Case:197


Case:198 a2=21533333333.333302 a1 = 115921111111111000064.000000 a0=-52164500000000.000000
Three distinct real roots: r1 = 0.000001, r2 = -2942175094.742583, r3 = -18591158238.590717
This is how these roots perform: 58386486395941.750000 -180127810079861161451096899584.000000 -1138200315252992247985799692288.000000
End of Case:198


Case:199 a2=-133000000000.000000 a1 = 14630.000000 a0=-0.000402
One real root and complex conjugate pair: r1 = 133000000000.000000, r_real = 0.000000 r_imag = 0.000000
This is how these roots perform: 1945790000000000.000000
This is how these roots perform: 0.000000 + 0.000805i
End of Case:199


Case:200 a2=133000000000.000000 a1 = -14630.000000 a0=0.000402
One real root and complex conjugate pair: r1 = -133000000000.000000, r_real = 0.000000 r_imag = 0.000000
This is how these roots perform: 1945790000000000.000000
This is how these roots perform: -0.000000 + -0.000805i
End of Case:200


Case:201 a2=-133000000000.000000 a1 = -14630.000000 a0=-0.000402
One real root and complex conjugate pair: r1 = 133000000000.000000, r_real = 0.000000 r_imag = 0.000000
This is how these roots perform: -1945790000000000.000000
This is how these roots perform: 0.000000 + -0.000805i
End of Case:201


Case:202 a2=133000000000.000000 a1 = 14630.000000 a0=0.000402
One real root and complex conjugate pair: r1 = -133000000000.000000, r_real = 0.000000 r_imag = 0.000000
This is how these roots perform: -1945790000000000.000000
This is how these roots perform: -0.000000 + 0.000805i
End of Case:202


Case:203 a2=-266000000000.000000 a1 = 17688999999999999737856.000000 a0=972895000000000.000000
Three distinct real roots: r1 = 0.000000, r2 = nan, r3 = nan
This is how these roots perform: 972895000000000.000000 nan nan
End of Case:203


Case:204 a2=-266000000000.000000 a1 = 17688999999999999737856.000000 a0=-972895000000000.000000
Three distinct real roots: r1 = 0.000000, r2 = nan, r3 = nan
This is how these roots perform: -972895000000000.000000 nan nan
End of Case:204


Case:205 a2=266000000000.000000 a1 = 17688999999999999737856.000000 a0=972895000000000.000000
Three distinct real roots: r1 = 0.000000, r2 = nan, r3 = nan
This is how these roots perform: 972895000000000.000000 nan nan
End of Case:205


Case:206 a2=266000000000.000000 a1 = 17688999999999999737856.000000 a0=-972895000000000.000000
Three distinct real roots: r1 = 0.000000, r2 = nan, r3 = nan
This is how these roots perform: -972895000000000.000000 nan nan
End of Case:206


Case:207 a2=-1610000000000.000000 a1 = 21252.000000 a0=-0.000070
Three distinct real roots: r1 = 1610000000000.000244, r2 = -0.000244, r3 = -0.000244
This is how these roots perform: 590330026078705680384.000000 -95968.666495 -95968.666495
End of Case:207


Case:208 a2=1610000000000.000000 a1 = -21252.000000 a0=0.000070
Three distinct real roots: r1 = 0.000244, r2 = 0.000000, r3 = -1610000000000.000244
This is how these roots perform: 95958.289542 0.000070 -590261594638705623040.000000
End of Case:208


Case:209 a2=-1610000000000.000000 a1 = -21252.000000 a0=-0.000070
Three distinct real roots: r1 = 1610000000000.000244, r2 = -0.000244, r3 = -0.000244
This is how these roots perform: 590261594638705623040.000000 -95958.289542 -95958.289542
End of Case:209


Case:210 a2=1610000000000.000000 a1 = 21252.000000 a0=0.000070
Three distinct real roots: r1 = 0.000244, r2 = 0.000000, r3 = -1610000000000.000244
This is how these roots perform: 95968.666495 0.000070 -590330026078705680384.000000
End of Case:210


Case:211 a2=-3220000000000.000000 a1 = 2592100000000000149946368.000000 a0=17107860000000000.000000
Three distinct real roots: r1 = 0.000000, r2 = nan, r3 = nan
This is how these roots perform: 17107860000000000.000000 nan nan
End of Case:211


Case:212 a2=-3220000000000.000000 a1 = 2592100000000000149946368.000000 a0=-17107860000000000.000000
Three distinct real roots: r1 = 0.000000, r2 = nan, r3 = nan
This is how these roots perform: -17107860000000000.000000 nan nan
End of Case:212


Case:213 a2=3220000000000.000000 a1 = 2592100000000000149946368.000000 a0=17107860000000000.000000
Three distinct real roots: r1 = 0.000000, r2 = nan, r3 = nan
This is how these roots perform: 17107860000000000.000000 nan nan
End of Case:213


Case:214 a2=3220000000000.000000 a1 = 2592100000000000149946368.000000 a0=-17107860000000000.000000
Three distinct real roots: r1 = 0.000000, r2 = nan, r3 = nan
This is how these roots perform: -17107860000000000.000000 nan nan
End of Case:214


Case:215 a2=-19166666666666.699219 a1 = 29900.000000 a0=-0.000012
One real root and complex conjugate pair: r1 = 19166666666666.699219, r_real = 0.000000 r_imag = 0.000000
This is how these roots perform: 573083333333334336.000000
This is how these roots perform: 0.000000 + 0.000023i
End of Case:215


Case:216 a2=19166666666666.699219 a1 = -29900.000000 a0=0.000012
One real root and complex conjugate pair: r1 = -19166666666666.699219, r_real = 0.000000 r_imag = 0.000000
This is how these roots perform: 573083333333334336.000000
This is how these roots perform: 0.000000 + -0.000023i
End of Case:216


Case:217 a2=-19166666666666.699219 a1 = -29900.000000 a0=-0.000012
One real root and complex conjugate pair: r1 = 19166666666666.699219, r_real = 0.000000 r_imag = 0.000000
This is how these roots perform: -573083333333334336.000000
This is how these roots perform: 0.000000 + -0.000023i
End of Case:217


Case:218 a2=19166666666666.699219 a1 = 29900.000000 a0=0.000012
One real root and complex conjugate pair: r1 = -19166666666666.699219, r_real = 0.000000 r_imag = 0.000000
This is how these roots perform: -573083333333334336.000000
This is how these roots perform: 0.000000 + 0.000023i
End of Case:218


Case:219 a2=-38333333333333.296875 a1 = 367361111111110982943899648.000000 a0=286541666666667008.000000
Three distinct real roots: r1 = 0.000000, r2 = nan, r3 = nan
This is how these roots perform: 286541666666667008.000000 nan nan
End of Case:219


Case:220 a2=-38333333333333.296875 a1 = 367361111111110982943899648.000000 a0=-286541666666667008.000000
Three distinct real roots: r1 = 0.000000, r2 = nan, r3 = nan
This is how these roots perform: -286541666666667008.000000 nan nan
End of Case:220


Case:221 a2=38333333333333.296875 a1 = 367361111111110982943899648.000000 a0=286541666666667008.000000
Three distinct real roots: r1 = 0.000000, r2 = nan, r3 = nan
This is how these roots perform: 286541666666667008.000000 nan nan
End of Case:221


Case:222 a2=38333333333333.296875 a1 = 367361111111110982943899648.000000 a0=-286541666666667008.000000
Three distinct real roots: r1 = 0.000000, r2 = nan, r3 = nan
This is how these roots perform: -286541666666667008.000000 nan nan
End of Case:222


Case:223 a2=-225000000000000.000000 a1 = 40950.000000 a0=-0.000002
One real root and complex conjugate pair: r1 = 225000000000000.000000, r_real = 0.000000 r_imag = 0.000000
This is how these roots perform: 9213750000000000000.000000
This is how these roots perform: -0.000000 + 0.000004i
End of Case:223


Case:224 a2=225000000000000.000000 a1 = -40950.000000 a0=0.000002
One real root and complex conjugate pair: r1 = -225000000000000.000000, r_real = 0.000000 r_imag = 0.000000
This is how these roots perform: 9213750000000000000.000000
This is how these roots perform: 0.000000 + -0.000004i
End of Case:224


Case:225 a2=-225000000000000.000000 a1 = -40950.000000 a0=-0.000002
One real root and complex conjugate pair: r1 = 225000000000000.000000, r_real = 0.000000 r_imag = 0.000000
This is how these roots perform: -9213750000000000000.000000
This is how these roots perform: -0.000000 + -0.000004i
End of Case:225


Case:226 a2=225000000000000.000000 a1 = 40950.000000 a0=0.000002
One real root and complex conjugate pair: r1 = -225000000000000.000000, r_real = 0.000000 r_imag = 0.000000
This is how these roots perform: -9213750000000000000.000000
This is how these roots perform: 0.000000 + 0.000004i
End of Case:226


Case:227 a2=-450000000000000.000000 a1 = 50625000000000004349174480896.000000 a0=4606875000000000000.000000
Three distinct real roots: r1 = 0.000000, r2 = nan, r3 = nan
This is how these roots perform: 4606875000000000000.000000 nan nan
End of Case:227


Case:228 a2=-450000000000000.000000 a1 = 50625000000000004349174480896.000000 a0=-4606875000000000000.000000
Three distinct real roots: r1 = 0.000000, r2 = nan, r3 = nan
This is how these roots perform: -4606875000000000000.000000 nan nan
End of Case:228


Case:229 a2=450000000000000.000000 a1 = 50625000000000004349174480896.000000 a0=4606875000000000000.000000
Three distinct real roots: r1 = 0.000000, r2 = nan, r3 = nan
This is how these roots perform: 4606875000000000000.000000 nan nan
End of Case:229


Case:230 a2=450000000000000.000000 a1 = 50625000000000004349174480896.000000 a0=-4606875000000000000.000000
Three distinct real roots: r1 = 0.000000, r2 = nan, r3 = nan
This is how these roots perform: -4606875000000000000.000000 nan nan
End of Case:230


Case:231 a2=-2610000000000000.000000 a1 = 54810.000000 a0=-0.000000
One real root and complex conjugate pair: r1 = 2610000000000000.000000, r_real = 0.000000 r_imag = 0.000000
This is how these roots perform: 143054100000000000000.000000
This is how these roots perform: -0.000000 + 0.000001i
End of Case:231


Case:232 a2=2610000000000000.000000 a1 = -54810.000000 a0=0.000000
One real root and complex conjugate pair: r1 = -2610000000000000.000000, r_real = 0.000000 r_imag = 0.000000
This is how these roots perform: 143054100000000000000.000000
This is how these roots perform: 0.000000 + -0.000001i
End of Case:232


Case:233 a2=-2610000000000000.000000 a1 = -54810.000000 a0=-0.000000
One real root and complex conjugate pair: r1 = 2610000000000000.000000, r_real = 0.000000 r_imag = 0.000000
This is how these roots perform: -143054100000000000000.000000
This is how these roots perform: -0.000000 + -0.000001i
End of Case:233


Case:234 a2=2610000000000000.000000 a1 = 54810.000000 a0=0.000000
One real root and complex conjugate pair: r1 = -2610000000000000.000000, r_real = 0.000000 r_imag = 0.000000
This is how these roots perform: -143054100000000000000.000000
This is how these roots perform: 0.000000 + 0.000001i
End of Case:234


Case:235 a2=-5220000000000000.000000 a1 = 6812099999999999892796475441152.000000 a0=71527050000000000000.000000
Three distinct real roots: r1 = 0.000000, r2 = nan, r3 = nan
This is how these roots perform: 71527050000000000000.000000 nan nan
End of Case:235


Case:236 a2=-5220000000000000.000000 a1 = 6812099999999999892796475441152.000000 a0=-71527050000000000000.000000
Three distinct real roots: r1 = 0.000000, r2 = nan, r3 = nan
This is how these roots perform: -71527050000000000000.000000 nan nan
End of Case:236


Case:237 a2=5220000000000000.000000 a1 = 6812099999999999892796475441152.000000 a0=71527050000000000000.000000
Three distinct real roots: r1 = 0.000000, r2 = nan, r3 = nan
This is how these roots perform: 71527050000000000000.000000 nan nan
End of Case:237


Case:238 a2=5220000000000000.000000 a1 = 6812099999999999892796475441152.000000 a0=-71527050000000000000.000000
Three distinct real roots: r1 = 0.000000, r2 = nan, r3 = nan
This is how these roots perform: -71527050000000000000.000000 nan nan
End of Case:238


Case:239 a2=-29966666666666700.000000 a1 = 71920.000000 a0=-0.000000
One real root and complex conjugate pair: r1 = 29966666666666700.000000, r_real = 0.000000 r_imag = 0.000000
This is how these roots perform: 2155202666666669113344.000000
This is how these roots perform: 0.000000 + 0.000000i
End of Case:239


Case:240 a2=29966666666666700.000000 a1 = -71920.000000 a0=0.000000
One real root and complex conjugate pair: r1 = -29966666666666700.000000, r_real = 0.000000 r_imag = 0.000000
This is how these roots perform: 2155202666666669113344.000000
This is how these roots perform: 0.000000 + -0.000000i
End of Case:240


Case:241 a2=-29966666666666700.000000 a1 = -71920.000000 a0=-0.000000
One real root and complex conjugate pair: r1 = 29966666666666700.000000, r_real = 0.000000 r_imag = 0.000000
This is how these roots perform: -2155202666666669113344.000000
This is how these roots perform: 0.000000 + -0.000000i
End of Case:241


Case:242 a2=29966666666666700.000000 a1 = 71920.000000 a0=0.000000
One real root and complex conjugate pair: r1 = -29966666666666700.000000, r_real = 0.000000 r_imag = 0.000000
This is how these roots perform: -2155202666666669113344.000000
This is how these roots perform: 0.000000 + 0.000000i
End of Case:242


Case:243 a2=-59933333333333296.000000 a1 = 898001111111111033922496424312832.000000 a0=1077601333333329969152.000000
Three distinct real roots: r1 = 59933333333328800.000000, r2 = 4495.000000, r3 = -4.000000
This is how these roots perform: 53820199925905731164045192982232699645155117891584.000000 4036514994443527080722449334152462336.000000 -3592004444443367883465435205599232.000000
End of Case:243


Case:244 a2=-59933333333333296.000000 a1 = 898001111111111033922496424312832.000000 a0=-1077601333333329969152.000000
Three distinct real roots: r1 = 59933333333337792.000000, r2 = -4.000000, r3 = -4495.000000
This is how these roots perform: 53820199925946127233604593941182666906596450238464.000000 -3592004444445522693757545402597376.000000 -4036514994445343420930923071442780160.000000
End of Case:244


Case:245 a2=59933333333333296.000000 a1 = 898001111111111033922496424312832.000000 a0=1077601333333329969152.000000
Three distinct real roots: r1 = 4495.000000, r2 = 4.000000, r3 = -59933333333337792.000000
This is how these roots perform: 4036514994445343420930923071442780160.000000 3592004444445522693757545402597376.000000 -53820199925946127233604593941182666906596450238464.000000
End of Case:245


Case:246 a2=59933333333333296.000000 a1 = 898001111111111033922496424312832.000000 a0=-1077601333333329969152.000000
Three distinct real roots: r1 = 4.000000, r2 = -4495.000000, r3 = -59933333333328800.000000
This is how these roots perform: 3592004444443367883465435205599232.000000 -4036514994443527080722449334152462336.000000 -53820199925905731164045192982232699645155117891584.000000
End of Case:246


Case:247 a2=-341000000000000000.000000 a1 = 92752.000000 a0=-0.000000
One real root and complex conjugate pair: r1 = 341000000000000000.000000, r_real = 0.000000 r_imag = 0.000000
This is how these roots perform: 31628432000000001572864.000000
This is how these roots perform: 0.000000 + 0.000000i
End of Case:247


Case:248 a2=341000000000000000.000000 a1 = -92752.000000 a0=0.000000
One real root and complex conjugate pair: r1 = -341000000000000000.000000, r_real = 0.000000 r_imag = 0.000000
This is how these roots perform: 31628432000000001572864.000000
This is how these roots perform: 0.000000 + -0.000000i
End of Case:248


Case:249 a2=-341000000000000000.000000 a1 = -92752.000000 a0=-0.000000
One real root and complex conjugate pair: r1 = 341000000000000000.000000, r_real = 0.000000 r_imag = 0.000000
This is how these roots perform: -31628432000000001572864.000000
This is how these roots perform: 0.000000 + -0.000000i
End of Case:249


Case:250 a2=341000000000000000.000000 a1 = 92752.000000 a0=0.000000
One real root and complex conjugate pair: r1 = -341000000000000000.000000, r_real = 0.000000 r_imag = 0.000000
This is how these roots perform: -31628432000000001572864.000000
This is how these roots perform: 0.000000 + 0.000000i
End of Case:250


Case:251 a2=-682000000000000000.000000 a1 = 116280999999999998993895560421834752.000000 a0=15814216000000000786432.000000
Three distinct real roots: r1 = 681999999999999232.000000, r2 = 724.625000, r3 = -32.000000
This is how these roots perform: 79303641999999568987273758377645897119898802172461056.000000 84260119624999747512094295491925245952.000000 -3720991999999984620113588607151767552.000000
End of Case:251


Case:252 a2=-682000000000000000.000000 a1 = 116280999999999998993895560421834752.000000 a0=-15814216000000000786432.000000
Three distinct real roots: r1 = 682000000000000768.000000, r2 = -32.000000, r3 = -724.625000
This is how these roots perform: 79303642000000430327015027003131538786873863835746304.000000 -3720992000000016496087347977256960000.000000 -84260119625000285861873342631479607296.000000
End of Case:252


Case:253 a2=682000000000000000.000000 a1 = 116280999999999998993895560421834752.000000 a0=15814216000000000786432.000000
Three distinct real roots: r1 = 724.625000, r2 = 32.000000, r3 = -682000000000000768.000000
This is how these roots perform: 84260119625000285861873342631479607296.000000 3720992000000016496087347977256960000.000000 -79303642000000430327015027003131538786873863835746304.000000
End of Case:253
