1 -8 84 -272 0
1 21 147 343 0
1 -24 192 -512 0
1 -5 0 0 0
1 -8 16 0 0
1 -13 56 -80 0
1 -3 2 0 0
1 -5 6 0 0
1 -4 3 0 0
1 -6 11 -6 0
1 -283 -5118 5400 0
1 0 0 0 0
1 0 0 0 64
1 0 0 0 -16
1 0 -32 0 257
1 0 -2 0 257
1 0 -4 0 4
1 0 6 0 9
1 0 -48 0 512
1 0 16 0 -512
1 0 -16 0 -512
1 0 48 0 512
1 156181 -561651 131531 351315315
0 9 9 9 9
