        Name: <Rozanov, Nikolai>
         CID: <00831231>
  LIBRARY NO: <0247023908>
Email Adress: <nikolai.rozanov13@imperial.ac.uk>
 Course CODE: <M3SC>
       Date:: <Mar  9 2016>
       Time:: <12:20:41>


The distance is 704750m and the latitude is: 45.815842
The max b is: 2 and the angles are: 0.790032 -2.386101 -0.047066 1.545766